[
  {
    "id": 44001866965,
    "type": 1,
    "status": 1,
    "agent_id": 2043020045615,
    "created_at": "2019-12-16T08:42:24Z",
    "category_id": 44000805779,
    "folder_id": 44001201537,
    "title": "Opprette en ny bruker",
    "updated_at": "2019-12-16T08:42:25Z",
    "description": "<p><strong>Brukertyper</strong></p><p>Det finnes prinsipielt to typer brukere:</p><ul><li>Windowsbrukere (NT Logins)</li><li>SQL Logins </li></ul><p><br></p><p>Windowsbrukere anbefales alltid hvis dette er mulig.  Fordelen med denne typen brukere er at man slipper å ha et separat brukernavn/passord utover det man bruker ved pålogging til Windows.  Dette kan brukes ved lokale installasjoner på en enkelt maskin, og i nettverksmiljøer der man bruker Windows domenekontrollere for tilgangsstyring (Active Directory).</p><p><br></p><p><strong>Opprette en ny bruker</strong></p><p>Klikk på knappen <strong>Ny </strong>under brukerlisten i skjermbildet <strong>Brukere og Roller</strong> (Se figur 1).  Skriv inn ønsket brukernavn.  Husk å ta med domenenavn hvis det er en NT bruker som skal gis tilgang.  Brukernavnet skal da skrives på formen domene\\bruker, f.eks. SHC\\pettere</p><p><br></p><p><strong>Tilgang til databaseserver</strong></p><p>Tilgang til selve serveren gjøres normalt på gruppenivå av en lokal systemadministrator hvis man buker NT Brukere.  Ved bruk av SQL Logins er det ingen ekstra prosedyre for å gi tilgang til serveren.</p><p><br></p><p><strong>Personalia</strong></p><p>Du skal fylle ut personalia for alle brukere. Hvis personalia svarer til en person som allerede finnes i databasen er det tilstrekkelig å fylle ut personnummer og klikke på <strong>Lagre</strong>.</p><p><br></p><p><strong>Tildele roller</strong></p><p>Tildeling av roller skjer under fanearket <strong>Roller</strong>.  Du krysser av for de rollene brukeren skal ha.  Tildelingen av roller har umiddelbar effekt, det er ikke nødvendig å klikke <strong>Lagre</strong>.</p><p><br></p><p><img src=\"https://s3.amazonaws.com/cdn.freshdesk.com/data/helpdesk/attachments/production/2043071641298/original/onC5QFNDStJIi1aBoc4R8qw39-BkmNxIZg.png?1576485641\" style=\"width: auto;\" class=\"fr-fic fr-fil fr-dib\" data-attachment=\"[object Object]\" data-id=\"2043071641298\"></p><p> Figur 1: Opprette ny bruker</p>",
    "description_text": " Brukertyper  Det finnes prinsipielt to typer brukere:   Windowsbrukere (NT Logins)  SQL Logins       Windowsbrukere anbefales alltid hvis dette er mulig.  Fordelen med denne typen brukere er at man slipper å ha et separat brukernavn/passord utover det man bruker ved pålogging til Windows.  Dette kan brukes ved lokale installasjoner på en enkelt maskin, og i nettverksmiljøer der man bruker Windows domenekontrollere for tilgangsstyring (Active Directory).     Opprette en ny bruker  Klikk på knappen Ny under brukerlisten i skjermbildet Brukere og Roller (Se figur 1).  Skriv inn ønsket brukernavn.  Husk å ta med domenenavn hvis det er en NT bruker som skal gis tilgang.  Brukernavnet skal da skrives på formen domene\\bruker, f.eks. SHC\\pettere     Tilgang til databaseserver  Tilgang til selve serveren gjøres normalt på gruppenivå av en lokal systemadministrator hvis man buker NT Brukere.  Ved bruk av SQL Logins er det ingen ekstra prosedyre for å gi tilgang til serveren.     Personalia  Du skal fylle ut personalia for alle brukere. Hvis personalia svarer til en person som allerede finnes i databasen er det tilstrekkelig å fylle ut personnummer og klikke på Lagre.     Tildele roller  Tildeling av roller skjer under fanearket Roller.  Du krysser av for de rollene brukeren skal ha.  Tildelingen av roller har umiddelbar effekt, det er ikke nødvendig å klikke Lagre.        Figur 1: Opprette ny bruker ",
    "seo_data": { "meta_title": "", "meta_description": "" },
    "tags": [],
    "attachments": [],
    "cloud_files": [],
    "thumbs_up": 0,
    "thumbs_down": 0,
    "hits": 0,
    "feedback_count": 0
  },
  {
    "id": 44001866966,
    "type": 1,
    "status": 1,
    "agent_id": 2043020045615,
    "created_at": "2019-12-16T08:45:14Z",
    "category_id": 44000805779,
    "folder_id": 44001201537,
    "title": "Gjenopprette bruker",
    "updated_at": "2019-12-16T08:45:14Z",
    "description": "<p><strong>Bakgrunn</strong></p><p>I noen tilfeller kan brukere være listet opp i brukerlisten på vanlig måte, men får likevel feilmelding ved pålogging om at de mangler brukerkonto.  Dette kan skyldes at brukeren har vært slettet og gjenopprettet i Active Directory (AD).  Problemet løses ved å gjenopprette brukeren.  Se også teknisk beskrivelse i et eget kapittel \"Orphaned users\".</p><p><br></p><p><strong>Praktisk gjennomføring</strong></p><p>Marker brukeren i brukerlisten, høyreklikk og velg \"Gjenopprett bruker\".</p><p><br></p><p><strong>Merk</strong></p><p>Gjenopprettede brukere mister medlemsskapet i sine roller, og tildeling av spesialroller må derfor gjøres på nytt.</p>",
    "description_text": " Bakgrunn  I noen tilfeller kan brukere være listet opp i brukerlisten på vanlig måte, men får likevel feilmelding ved pålogging om at de mangler brukerkonto.  Dette kan skyldes at brukeren har vært slettet og gjenopprettet i Active Directory (AD).  Problemet løses ved å gjenopprette brukeren.  Se også teknisk beskrivelse i et eget kapittel \"Orphaned users\".     Praktisk gjennomføring  Marker brukeren i brukerlisten, høyreklikk og velg \"Gjenopprett bruker\".     Merk  Gjenopprettede brukere mister medlemsskapet i sine roller, og tildeling av spesialroller må derfor gjøres på nytt. ",
    "seo_data": { "meta_title": "", "meta_description": "" },
    "tags": [],
    "attachments": [],
    "cloud_files": [],
    "thumbs_up": 0,
    "thumbs_down": 0,
    "hits": 0,
    "feedback_count": 0
  },
  {
    "id": 44001866963,
    "type": 1,
    "status": 1,
    "agent_id": 2043020045615,
    "created_at": "2019-12-16T08:36:50Z",
    "category_id": 44000805779,
    "folder_id": 44001201537,
    "title": "Sikkerhetsmodell",
    "updated_at": "2019-12-16T08:44:26Z",
    "description": "<p><strong>Sikring av data ved kilden</strong></p><p>Sikkerheten i FastTrak ligger på databasenivå.  Det vil si at alle beslutninger om tilgang tas i databasen, ved å tildele roller og rettigheter der. Applikasjonen har ikke noe eget brukernavn/passord.  Dette gjør at hverken konfigurasjonsfiler eller programfilen inneholder brukernavn eller passord.  Alle pasientdata ligger også lagret i databasen, og det skjer ingen mellomlagring av disse på klienten.</p><p><br></p><p><strong>Pålogging</strong></p><p>Man kan velge NT Security (AD brukere) eller SQL Server logins.  Dette spesifiseres i FastTrak.UDL, som skal ligge i samme katalog som programfilen. Ved bruk av NT sikkerhet (AD brukere) kan man angi en parameter på kommandolinjen (eller i snarveien) for å starte programmet direkte i et fagområde, uten å vise påloggingsbildet, f.eks. slik:  FastTrak.EXE AutoLogin=NDV.</p><p><br></p><p><strong>Konfidensialitet</strong></p><p>Brukere må oppgi yrke ved første pålogging, og kan senere ikke endre dette uten hjelp av en superbruker.  Hvert yrke har null eller flere pasientrettede roller.  Bare brukere med pasientrettede roller kan åpne en journal.  For å åpne en journal må også en relasjon i forhold til pasienten oppgis (Fig 1).  For en lege kan f.eks. rollene være \"Pasientansvarlig lege\", \"Legetilsyn på vakt\" el.l. (Fig 2).  De enkelte relasjoner løper ut på tid.  F.eks. vil rollen \"Legetilsyn på vakt\" bare være gyldig i 24 timer, før den må deklareres på nytt.  Alle roller som oppgis logges, slik at man i ettertid kan spore hvem som har åpnet journaler og i hvilken sammenheng det ble gjort.</p><p><br></p><p><strong>Arbeidssted</strong></p><p>En bruker kan også bare åpne en pasientjournal som er tilknyttet eget arbeidssted (Fig 3).  Normalt er et arbeidssted det samme som en institusjon/sykehus, men det er også mulig å la hver avdeling representere et eget arbeidssted.  For at journalen skal kunne åpnes andre steder må pasienten \"skrives ut\" fra arbeidsstedet, eller overflyttes.</p><p><br></p><p><strong>Bytte arbeidssted</strong></p><p>Rettigheter som databaseeier (db_owner) eller administrator (administrator)  tillater at man kan endre en annen brukers arbeidssted.  Man kan også tildele rollen \"Bytte Institusjon\" til en bruker som har behov for å bytte institusjon.  Dette skjer i skjermbildet <strong>Brukere og Roller</strong>.</p><p><img src=\"https://s3.amazonaws.com/cdn.freshdesk.com/data/helpdesk/attachments/production/2043071639897/original/bYOh0QVfm4PrjqdhNLi5ihOgQspAgM_BLg.png?1576485352\" style=\"width: auto;\" class=\"fr-fic fr-fil fr-dib\" data-attachment=\"[object Object]\" data-id=\"2043071639897\"></p><p>Fig 1: Aktiv relasjon er nødvendig for å åpne en journal.</p><p><img src=\"https://s3.amazonaws.com/cdn.freshdesk.com/data/helpdesk/attachments/production/2043071639986/original/NxY2wrXwaGOw060R9FU8xg2UA5TnZl5Lyg.png?1576485374\" style=\"width: auto;\" class=\"fr-fic fr-fil fr-dib\" data-attachment=\"[object Object]\" data-id=\"2043071639986\"></p><p>Fig 2: Hvert yrke har definerte relasjoner.</p><p><img src=\"https://s3.amazonaws.com/cdn.freshdesk.com/data/helpdesk/attachments/production/2043071640088/original/SgzEsIUAWiKgWPiZywc0JBIIZatntP529A.png?1576485399\" style=\"width: auto;\" class=\"fr-fic fr-fil fr-dib\" data-attachment=\"[object Object]\" data-id=\"2043071640088\"></p><p>Fig 3: Flere institusjoner/avdelinger kan dele database uten å dele pasienter.</p>",
    "description_text": " Sikring av data ved kilden  Sikkerheten i FastTrak ligger på databasenivå.  Det vil si at alle beslutninger om tilgang tas i databasen, ved å tildele roller og rettigheter der. Applikasjonen har ikke noe eget brukernavn/passord.  Dette gjør at hverken konfigurasjonsfiler eller programfilen inneholder brukernavn eller passord.  Alle pasientdata ligger også lagret i databasen, og det skjer ingen mellomlagring av disse på klienten.     Pålogging  Man kan velge NT Security (AD brukere) eller SQL Server logins.  Dette spesifiseres i FastTrak.UDL, som skal ligge i samme katalog som programfilen. Ved bruk av NT sikkerhet (AD brukere) kan man angi en parameter på kommandolinjen (eller i snarveien) for å starte programmet direkte i et fagområde, uten å vise påloggingsbildet, f.eks. slik:  FastTrak.EXE AutoLogin=NDV.     Konfidensialitet  Brukere må oppgi yrke ved første pålogging, og kan senere ikke endre dette uten hjelp av en superbruker.  Hvert yrke har null eller flere pasientrettede roller.  Bare brukere med pasientrettede roller kan åpne en journal.  For å åpne en journal må også en relasjon i forhold til pasienten oppgis (Fig 1).  For en lege kan f.eks. rollene være \"Pasientansvarlig lege\", \"Legetilsyn på vakt\" el.l. (Fig 2).  De enkelte relasjoner løper ut på tid.  F.eks. vil rollen \"Legetilsyn på vakt\" bare være gyldig i 24 timer, før den må deklareres på nytt.  Alle roller som oppgis logges, slik at man i ettertid kan spore hvem som har åpnet journaler og i hvilken sammenheng det ble gjort.     Arbeidssted  En bruker kan også bare åpne en pasientjournal som er tilknyttet eget arbeidssted (Fig 3).  Normalt er et arbeidssted det samme som en institusjon/sykehus, men det er også mulig å la hver avdeling representere et eget arbeidssted.  For at journalen skal kunne åpnes andre steder må pasienten \"skrives ut\" fra arbeidsstedet, eller overflyttes.     Bytte arbeidssted  Rettigheter som databaseeier (db_owner) eller administrator (administrator)  tillater at man kan endre en annen brukers arbeidssted.  Man kan også tildele rollen \"Bytte Institusjon\" til en bruker som har behov for å bytte institusjon.  Dette skjer i skjermbildet Brukere og Roller.    Fig 1: Aktiv relasjon er nødvendig for å åpne en journal.    Fig 2: Hvert yrke har definerte relasjoner.    Fig 3: Flere institusjoner/avdelinger kan dele database uten å dele pasienter. ",
    "seo_data": { "meta_title": "", "meta_description": "" },
    "tags": [],
    "attachments": [],
    "cloud_files": [],
    "thumbs_up": 0,
    "thumbs_down": 0,
    "hits": 0,
    "feedback_count": 0
  }
]
