[
  {
    "id": 44001201537,
    "name": "Brukere og roller",
    "description": null,
    "visibility": 1,
    "created_at": "2019-12-16T08:55:08Z",
    "updated_at": "2019-12-16T08:55:08Z"
  },
  {
    "id": 44001201539,
    "name": "Personer",
    "description": null,
    "visibility": 1,
    "created_at": "2019-12-16T08:57:34Z",
    "updated_at": "2019-12-16T08:57:34Z"
  },
  {
    "id": 44001201541,
    "name": "Skjemautfylling",
    "description": null,
    "visibility": 1,
    "created_at": "2019-12-16T09:20:47Z",
    "updated_at": "2019-12-16T09:20:47Z"
  },
  {
    "id": 44001201556,
    "name": "Noklus Diabetes",
    "description": null,
    "visibility": 1,
    "created_at": "2019-12-16T13:28:28Z",
    "updated_at": "2019-12-16T13:28:28Z"
  }
]
