{
  "id": 44000805779,
  "name": "Flyttet fra help.fasttrak.no",
  "description": "Prosedyrer tilpasset superbruker. Flyttes over til Public etter behov eller spørsmål fra brukerne. ",
  "created_at": "2019-12-16T08:54:22Z",
  "updated_at": "2019-12-16T08:57:13Z"
}
